179
188
91
187
455
605
313
314
303
304
445
595
437
587
295
296
581
438
588
446
596
447
597
305
306
181
182
307
449
599
598
448
440
590
589
439
433
582
583
434
297
298
293
175
174
173
85
180
92
25
26
27
87
86
103
102
93
94
1
34
33
32
101
110
111
121
120
7
40
48
49
8
3
41
42
4
9
50
122
112
113
123
226
225
213
214
342
341
354
355
499
651
637
650
649
498
484
636
623
485
472
622
471
459
609
610
460
318
191
202
330
329
201
190
317
316
189
200
328
327
199
315
457
607
608
458
470
621
620
469
482
634
635
483
497
648
496
352
353
340
339
211
212
224
223
222
210
338
351
495
647
633
481
468
619
456
606
326
325
617
467
618
479
631
632
480
494
646
645
493
350
337
349
221
209
197
198
99
100
109
119
39
47
31
63
55
129
139
233
245
257
258
150
149
71
159
269
270
279
401
423
413
402
414
559
713
723
569
701
547
687
535
688
673
659
660
674
522
508
507
521
364
377
363
389
390
234
246
365
378
523
509
661
675
689
536
548
702
703
704
550
549
537
538
691
690
676
662
677
525
511
510
524
379
366
367
380
248
236
235
247
259
403
391
392
404
271
260
261
272
405
393
394
406
273
262
250
238
237
249
381
368
382
527
369
512
526
678
663
664
513
665
679
693
692
539
540
552
551
705
706
717
563
562
716
726
733
578
572
571
577
732
725
724
570
731
714
715
561
560
415
424
425
426
431
282
281
416
417
168
169
289
288
287
280
160
167
79
80
81
23
74
73
72
151
162
161
153
152
142
143
133
132
131
141
140
130
56
64
13
14
19
65
57
58
66
20
15
16
21
67
59
60
68
22
17
18
69
61
137
147
146
136
135
134
144
145
155
154
164
163
156
77
76
75
24
82
83
84
172
165
285
292
291
290
170
171
418
419
284
283
432
427
428
429
420
567
566
720
721
736
575
729
728
735
580
574
573
579
734
727
719
565
564
718
707
708
554
553
541
542
695
694
680
666
514
667
668
681
529
515
370
528
383
371
384
252
240
239
251
263
274
407
395
396
408
275
264
265
276
409
397
398
410
266
254
242
241
253
385
372
373
386
531
517
516
530
682
669
683
697
696
543
544
556
555
709
710
711
557
545
698
684
670
518
532
387
374
255
243
399
400
376
388
375
534
520
519
533
685
671
672
686
699
546
700
558
712
576
730
722
568
421
411
422
430
412
286
277
278
166
78
158
157
267
268
256
244
148
138
62
70
220
232
128
118
54
46
38
107
207
108
208
196
98
195
186
30
178
90
97
185
89
88
176
177
28
29
2
36
35
5
10
51
43
44
52
11
6
53
45
12
37
106
127
117
126
116
115
125
124
114
104
105
96
95
192
319
320
193
204
332
331
203
215
227
343
344
357
228
216
217
229
358
345
346
359
230
218
206
194
205
333
321
322
334
476
464
463
475
626
613
614
627
641
655
503
489
488
502
640
639
654
501
487
486
356
500
653
652
638
624
473
474
625
612
462
461
611
600
601
451
450
591
584
585
592
442
436
435
441
299
300
294
183
308
309
184
310
301
443
593
586
603
453
452
602
454
604
594
444
302
311
323
312
324
466
616
630
629
478
336
335
615
465
628
477
490
642
656
504
360
347
219
231
361
348
362
506
492
491
505
657
643
644
658
814
800
799
813
965
951
952
966
1110
1096
1109
1239
1227
1095
1108
964
812
798
950
937
784
925
771
1083
1084
938
785
786
772
926
1072
1060
1071
1059
1050
904
750
760
914
758
912
913
759
742
749
903
1049
1058
1192
1057
1056
1191
1042
1048
1047
901
895
896
902
748
741
740
747
910
911
757
756
767
921
922
768
781
934
933
780
794
808
809
960
1104
946
947
961
810
795
796
962
948
949
963
811
797
783
770
769
782
935
923
924
936
1082
1070
1069
1081
1213
1202
1214
1226
1238
1107
1094
1093
1106
1237
1225
1224
1236
1105
1092
1091
1235
1223
1211
1079
1080
1212
1201
1068
1067
1200
1311
1312
1321
1320
1330
1340
1341
1331
1332
1342
1333
1343
1322
1401
1460
1409
1417
1454
1459
1416
1408
1407
1415
1458
1453
1399
1400
1450
1393
1392
1185
1184
1304
1305
1193
1313
1306
1186
1394
1194
1203
1314
1204
1216
1324
1215
1323
1402
1410
1418
1334
1344
1240
1228
1434
1426
1354
1364
1252
1264
1276
1275
1373
1374
1442
1382
1286
1285
1294
1160
1178
1170
1159
1169
1028
878
886
1036
868
1018
856
1006
855
842
828
827
841
993
979
980
994
1123
1136
1124
1148
1147
1251
1263
1122
1135
992
978
826
840
854
1005
1017
867
866
865
1015
1016
1004
1003
852
853
839
825
838
990
976
977
991
1134
1121
1120
1133
1261
1249
1250
1262
1274
1158
1146
1145
1157
1284
1273
1272
1283
1156
1144
1143
1155
1282
1271
1259
1247
1248
1260
1132
1119
1131
988
1118
975
989
837
824
823
974
822
836
850
851
1002
1001
1013
1014
864
863
874
1024
1025
875
883
890
1039
1033
1034
1040
891
884
885
1035
892
877
876
1026
1027
1168
1177
1176
1175
1180
1291
1292
1167
1166
1387
1386
1298
1299
1300
1293
1381
1388
1448
1447
1446
1472
1439
1440
1441
1372
1379
1380
1370
1371
1361
1360
1350
1351
1352
1362
1363
1353
1425
1433
1466
1465
1470
1432
1424
1423
1431
1469
1464
1463
1468
1430
1422
1421
1429
1467
1462
1461
1428
1420
1346
1356
1357
1347
1348
1349
1359
1358
1368
1369
1377
1378
1367
1436
1437
1438
1471
1445
1444
1443
1383
1376
1288
1295
1296
1297
1385
1384
1165
1164
1289
1290
1179
1174
1173
1172
1163
1020
1021
871
870
887
1030
880
881
888
1037
1031
1032
1038
889
882
872
1022
1023
873
862
861
1011
1012
1000
999
848
849
835
821
973
820
819
834
986
972
1117
987
1130
1116
1129
1257
1245
1246
1258
1270
1281
1154
1142
1141
1153
1280
1269
1268
1279
1152
1140
1139
1151
1267
1255
1243
1244
1256
1128
1115
1114
1127
984
970
971
985
833
818
832
846
847
998
997
1009
1010
860
859
858
1008
996
845
831
817
969
983
1126
1113
1254
1242
1138
1137
1111
1125
1112
981
967
968
982
830
816
815
829
844
995
843
1007
857
1029
879
869
1019
1162
1150
1161
1171
1149
1287
1278
1277
1375
1435
1365
1366
1266
1265
1253
1241
1355
1345
1419
1427
1395
1411
1403
1335
1325
1316
1315
1206
1205
1217
1229
1097
1085
1098
953
801
802
954
940
788
787
939
774
927
773
1073
1074
762
916
775
928
941
789
803
955
1099
1086
1218
1230
1231
1232
1220
1219
1087
1088
1101
1100
956
804
957
943
791
790
942
929
776
777
930
918
764
763
917
1063
1207
1075
1076
1208
1197
1064
1065
1198
1209
1077
1078
1210
1199
1066
920
766
765
919
931
778
932
945
779
792
944
958
805
806
793
807
959
1103
1102
1089
1090
1222
1221
1233
1234
1339
1329
1328
1338
1414
1457
1452
1406
1405
1451
1456
1413
1412
1404
1455
1336
1337
1327
1326
1317
1396
1397
1398
1449
1310
1309
1318
1319
1302
1303
1391
1390
1389
1308
1188
1301
1181
1182
1183
1041
1046
1045
894
739
738
893
899
745
746
900
908
754
755
909
1055
1190
1189
1054
1053
753
907
752
906
744
898
737
1044
1043
743
897
751
905
1052
1051
1062
1061
761
915
1195
1307
1196
1187
#END