0.000679
0.000679
0.000679
0.000679
0.000679
0.000679
0.000679
0.000679
0.000679
0.000679
0.000679
0.000679
0.000679
0.000679
0.000679
0.000679
0.000679
0.000679
0.000679
0.000679
0.000679
0.000679
0.000679
0.000679
0.000679
0.000679
0.000679
0.000679
0.000679
0.000679
0.000679
0.000679
0.000679
0.000679
0.000679
0.000679
0.000679
0.000679
0.000679
0.000679
0.000679
0.000679
0.000679
0.000679
0.000679
0.000679
0.000679
0.000679
0.000679
0.000679
0.000679
0.000679
0.000679
0.000679
0.000679
0.000679
0.000679
0.000679
0.000679
0.000679
0.000679
0.000679
0.000679
0.000679
0.000679
0.000679
0.000679
0.000679
0.000679
0.000679
0.000679
0.000679
0.000679
0.000679
0.000679
0.000679
0.000679
0.000679
0.000679
0.000679
0.000679
0.000679
0.000679
0.000679
0.000679
0.000679
0.000679
0.000679
0.000679
0.000679
0.000679
0.000679
0.000679
0.000679
0.000679
0.000679
0.000679
0.000679
0.000679
0.000679
0.000679
0.000679
0.000679
0.000679
0.000679
0.000679
0.000679
0.000679
0.000679
0.000679
0.000679
0.000679
0.000679
0.000679
0.000679
0.000679
0.000679
0.000679
0.000679
0.000679
0.000679
0.000679
0.000679
0.000679
0.000679
0.000679
0.000679
0.000679
0.000679
0.000679
0.000679
0.000679
0.000679
0.000679
0.000679
0.000679
0.000679
0.000679
0.000679
0.000679
0.000679
0.000679
0.000679
0.000679
0.000679
0.000679
0.000679
0.000679
0.000679
0.000679
0.000679
0.000679
0.000679
0.000679
0.000679
0.000679
0.000679
0.000679
0.000679
0.000679
0.000679
0.000679
0.000679
0.000679
0.000679
0.000679
0.000679
0.000679
0.000679
0.000679
0.000679
0.000679
0.000679
0.000679
0.000679
0.000679
0.000679
0.000679
0.000679
0.000679
0.000679
0.000679
0.000679
0.000679
0.000679
0.000679
0.000679
0.000679
0.000679
0.000679
0.000679
0.000679
0.000679
0.000679
0.000679
0.000679
0.000679
0.000679
0.000679
0.000679
0.000679
0.000679
0.000679
0.000679
0.000679
0.000679
0.000679
0.000679
0.000679
0.000679
0.000679
0.000679
0.000679
0.000679
0.000679
0.000679
0.000679
0.000679
0.000679
0.000679
0.000679
0.000679
0.000679
0.000679
0.000679
0.000679
0.000679
0.000679
0.000679
0.000679
0.000679
0.000679
0.000679
0.000679
0.000679
0.000679
0.000679
0.000679
0.000679
0.000679
0.000679
0.000679
0.000679
0.000679
0.000679
0.000679
0.000679
0.000679
0.000679
0.000679
0.000679
0.000679
0.000679
0.000679
0.000679
0.000679
0.000679
0.000679
0.000679
0.000679
0.000679
0.000679
0.000679
0.000679
0.000679
0.000679
0.000679
0.000679
0.000679
0.000679
0.000679
0.000679
0.000679
0.000679
0.000679
0.000679
0.000679
0.000679
0.000679
0.000679
0.000679
0.000679
0.000679
0.000679
0.000679
0.000679
0.000679
0.000679
0.000679
0.000679
0.000679
0.000679
0.000679
0.000679
0.000679
0.000679
0.000679
0.000679
0.000679
0.000679
0.000679
0.000679
0.000679
0.000679
0.000679
0.000679
0.000679
0.000679
0.000679
0.000679
0.000679
0.000679
0.000679
0.000679
0.000679
0.000679
0.000679
0.000679
0.000679
0.000679
0.000679
0.000679
0.000679
0.000679
0.000679
0.000679
0.000679
0.000679
0.000679
0.000679
0.000679
0.000679
0.000679
0.000679
0.000679
0.000679
0.000679
0.000679
0.000679
0.000679
0.000679
0.000679
0.000679
0.000679
0.000679
0.000679
0.000679
0.000679
0.000679
0.000679
0.000679
0.000679
0.000679
0.000679
0.000679
0.000679
0.000679
0.000679
0.000679
0.000679
0.000679
0.000679
0.000679
0.000679
0.000679
0.000679
0.000679
0.000679
0.000679
0.000679
0.000679
0.000679
0.000679
0.000679
0.000679
0.000679
0.000679
0.000679
0.000679
0.000679
0.000679
0.000679
0.000679
0.000679
0.000679
0.000679
0.000679
0.000679
0.000679
0.000679
0.000679
0.000679
0.000679
0.000679
0.000679
0.000679
0.000679
0.000679
0.000679
0.000679
0.000679
0.000679
0.000679
0.000679
0.000679
0.000679
0.000679
0.000679
0.000679
0.000679
0.000679
0.000679
0.000679
0.000679
0.000679
0.000679
0.000679
0.000679
0.000679
0.000679
0.000679
0.000679
0.000679
0.000679
0.000679
0.000679
0.000679
0.000679
0.000679
0.000679
0.000679
0.000679
0.000679
0.000679
0.000679
0.000679
0.000679
0.000679
0.000679
0.000679
0.000679
0.000679
0.000679
0.000679
0.000679
0.000679
0.000679
0.000679
0.000679
0.000679
0.000679
0.000679
0.000679
0.000679
0.000679
0.000679
0.000679
0.000679
0.000679
0.000679
0.000679
0.000679
0.000679
0.000679
0.000679
0.000679
0.000679
0.000679
0.000679
0.000679
0.000679
0.000679
0.000679
0.000679
0.000679
0.000679
0.000679
0.000679
0.000679
0.000679
0.000679
0.000679
0.000679
0.000679
0.000679
0.000679
0.000679
0.000679
0.000679
0.000679
0.000679
0.000679
0.000679
0.000679
0.000679
0.000679
0.000679
0.000679
0.000679
0.000679
0.000679
0.000679
0.000679
0.000679
0.000679
0.000679
0.000679
0.000679
0.000679
0.000679
0.000679
0.000679
0.000679
0.000679
0.000679
0.000679
0.000679
0.000679
0.000679
0.000679
0.000679
0.000679
0.000679
0.000679
0.000679
0.000679
0.000679
0.000679
0.000679
0.000679
0.000679
0.000679
0.000679
0.000679
0.000679
0.000679
0.000679
0.000679
0.000679
0.000679
0.000679
0.000679
0.000679
0.000679
0.000679
0.000679
0.000679
0.000679
0.000679
0.000679
0.000679
0.000679
0.000679
0.000679
0.000679
0.000679
0.000679
0.000679
0.000679
0.000679
0.000679
0.000679
0.000679
0.000679
0.000679
0.000679
0.000679
0.000679
0.000679
0.000679
0.000679
0.000679
0.000679
0.000679
0.000679
0.000679
0.000679
0.000679
0.000679
0.000679
0.000679
0.000679
0.000679
0.000679
0.000679
0.000679
0.000679
0.000679
0.000679
0.000679
0.000679
0.000679
0.000679
0.000679
0.000679
0.000679
0.000679
0.000679
0.000679
0.000679
0.000679
0.000679
0.000679
0.000679
0.000679
0.000679
0.000679
0.000679
0.000679
0.000679
0.000679
0.000679
0.000679
0.000679
0.000679
0.000679
0.000679
0.000679
0.000679
0.000679
0.000679
0.000679
0.000679
0.000679
0.000679
0.000679
0.000679
0.000679
0.000679
0.000679
0.000679
0.000679
0.000679
0.000679
0.000679
0.000679
0.000679
0.000679
0.000679
0.000679
0.000679
0.000679
0.000679
0.000679
0.000679
0.000679
0.000679
0.000679
0.000679
0.000679
0.000679
0.000679
0.000679
0.000679
0.000679
0.000679
0.000679
0.000679
0.000679
0.000679
0.000679
0.000679
0.000679
0.000679
0.000679
0.000679
0.000679
0.000679
0.000679
0.000679
0.000679
0.000679
0.000679
0.000679
0.000679
0.000679
0.000679
0.000679
0.000679
0.000679
0.000679
0.000679
0.000679
0.000679
0.000679
0.000679
0.000679
0.000679
0.000679
0.000679
0.000679
0.000679
0.000679
0.000679
0.000679
0.000679
0.000679
0.000679
0.000679
0.000679
0.000679
0.000679
0.000679
0.000679
0.000679
0.000679
0.000679
0.000679
0.000679
0.000679
0.000679
0.000679
0.000679
0.000679
0.000679
0.000679
0.000679
0.000679
0.000679
0.000679
0.000679
0.000679
0.000679
0.000679
0.000679
0.000679
0.000679
0.000679
0.000679
0.000679
0.000679
0.000679
0.000679
0.000679
0.000679
0.000679
0.000679
0.000679
0.000679
0.000679
0.000679
0.000679
0.000679
0.000679
0.000679
0.000679
0.000679
0.000679
0.000679
0.000679
0.000679
0.000679
0.000679
0.000679
0.000679
0.000679
0.000679
0.000679
0.000679
0.000679
0.000679
0.000679
0.000679
0.000679
0.000679
0.000679
0.000679
0.000679
0.000679
0.000679
0.000679
0.000679
0.000679
0.000679
0.000679
0.000679
0.000679
0.000679
0.000679
0.000679
0.000679
0.000679
0.000679
0.000679
0.000679
0.000679
0.000679
0.000679
0.000679
0.000679
0.000679
0.000679
0.000679
0.000679
0.000679
0.000679
0.000679
0.000679
0.000679
0.000679
0.000679
0.000679
0.000679
0.000679
0.000679
0.000679
0.000679
0.000679
0.000679
0.000679
0.000679
0.000679
0.000679
0.000679
0.000679
0.000679
0.000679
0.000679
0.000679
0.000679
0.000679
0.000679
0.000679
0.000679
0.000679
0.000679
0.000679
0.000679
0.000679
0.000679
0.000679
0.000679
0.000679
0.000679
0.000679
0.000679
0.000679
0.000679
0.000679
0.000679
0.000679
0.000679
0.000679
0.000679
0.000679
0.000679
0.000679
0.000679
0.000679
0.000679
0.000679
0.000679
0.000679
0.000679
0.000679
0.000679
0.000679
0.000679
0.000679
0.000679
0.000679
0.000679
0.000679
0.000679
0.000679
0.000679
0.000679
0.000679
0.000679
0.000679
0.000679
0.000679
0.000679
0.000679
0.000679
0.000679
0.000679
0.000679
0.000679
0.000679
0.000679
0.000679
0.000679
0.000679
0.000679
0.000679
0.000679
0.000679
0.000679
0.000679
0.000679
0.000679
0.000679
0.000679
0.000679
0.000679
0.000679
0.000679
0.000679
0.000679
0.000679
0.000679
0.000679
0.000679
0.000679
0.000679
0.000679
0.000679
0.000679
0.000679
0.000679
0.000679
0.000679
0.000679
0.000679
0.000679
0.000679
0.000679
0.000679
0.000679
0.000679
0.000679
0.000679
0.000679
0.000679
0.000679
0.000679
0.000679
0.000679
0.000679
0.000679
0.000679
0.000679
0.000679
0.000679
0.000679
0.000679
0.000679
0.000679
0.000679
0.000679
0.000679
0.000679
0.000679
0.000679
0.000679
0.000679
0.000679
0.000679
0.000679
0.000679
0.000679
0.000679
0.000679
0.000679
0.000679
0.000679
0.000679
0.000679
0.000679
0.000679
0.000679
0.000679
0.000679
0.000679
0.000679
0.000679
0.000679
0.000679
0.000679
0.000679
0.000679
0.000679
0.000679
0.000679
0.000679
0.000679
0.000679
0.000679
0.000679
0.000679
0.000679
0.000679
0.000679
0.000679
0.000679
0.000679
0.000679
0.000679
0.000679
0.000679
0.000679
0.000679
0.000679
0.000679
0.000679
0.000679
0.000679
0.000679
0.000679
0.000679
0.000679
0.000679
0.000679
0.000679
0.000679
0.000679
0.000679
0.000679
0.000679
0.000679
0.000679
0.000679
0.000679
0.000679
0.000679
0.000679
0.000679
0.000679
0.000679
0.000679
0.000679
0.000679
0.000679
0.000679
0.000679
0.000679
0.000679
0.000679
0.000679
0.000679
0.000679
0.000679
0.000679
0.000679
0.000679
0.000679
0.000679
0.000679
0.000679
0.000679
0.000679
0.000679
0.000679
0.000679
0.000679
0.000679
0.000679
0.000679
0.000679
0.000679
0.000679
0.000679
0.000679
0.000679
0.000679
0.000679
0.000679
0.000679
0.000679
0.000679
0.000679
0.000679
0.000679
0.000679
0.000679
0.000679
0.000679
0.000679
0.000679
0.000679
0.000679
0.000679
0.000679
0.000679
0.000679
0.000679
0.000679
0.000679
0.000679
0.000679
0.000679
0.000679
0.000679
0.000679
0.000679
0.000679
0.000679
0.000679
0.000679
0.000679
0.000679
0.000679
0.000679
0.000679
0.000679
0.000679
0.000679
0.000679
0.000679
0.000679
0.000679
0.000679
0.000679
0.000679
0.000679
0.000679
0.000679
0.000679
0.000679
0.000679
0.000679
0.000679
0.000679
0.000679
0.000679
0.000679
0.000679
0.000679
0.000679
0.000679
0.000679
0.000679
0.000679
0.000679
0.000679
0.000679
0.000679
0.000679
0.000679
0.000679
0.000679
0.000679
0.000679
0.000679
0.000679
0.000679
0.000679
0.000679
0.000679
0.000679
0.000679
0.000679
0.000679
0.000679
0.000679
0.000679
0.000679
0.000679
0.000679
0.000679
0.000679
0.000679
0.000679
0.000679
0.000679
0.000679
0.000679
0.000679
0.000679
0.000679
0.000679
0.000679
0.000679
0.000679
0.000679
0.000679
0.000679
0.000679
0.000679
0.000679
0.000679
0.000679
0.000679
0.000679
0.000679
0.000679
0.000679
0.000679
0.000679
0.000679
0.000679
0.000679
0.000679
0.000679
0.000679
0.000679
0.000679
0.000679
0.000679
0.000679
0.000679
0.000679
0.000679
0.000679
0.000679
0.000679
0.000679
0.000679
0.000679
0.000679
0.000679
0.000679
0.000679
0.000679
0.000679
0.000679
0.000679
0.000679
0.000679
0.000679
0.000679
0.000679
0.000679
0.000679
0.000679
0.000679
0.000679
0.000679
0.000679
0.000679
0.000679
0.000679
0.000679
0.000679
0.000679
0.000679
0.000679
0.000679
0.000679
0.000679
0.000679
0.000679
0.000679
0.000679
0.000679
0.000679
0.000679
0.000679
0.000679
0.000679
0.000679
0.000679
0.000679
0.000679
0.000679
0.000679
0.000679
0.000679
0.000679
0.000679
0.000679
0.000679
0.000679
0.000679
0.000679
0.000679
0.000679
0.000679
0.000679
0.000679
0.000679
0.000679
0.000679
0.000679
0.000679
0.000679
0.000679
0.000679
0.000679
0.000679
0.000679
0.000679
0.000679
0.000679
0.000679
0.000679
0.000679
0.000679
0.000679
0.000679
0.000679
0.000679
0.000679
0.000679
0.000679
0.000679
0.000679
0.000679
0.000679
0.000679
0.000679
0.000679
0.000679
0.000679
0.000679
0.000679
0.000679
0.000679
0.000679
0.000679
0.000679
0.000679
0.000679
0.000679
0.000679
0.000679
0.000679
0.000679
0.000679
0.000679
0.000679
0.000679
0.000679
0.000679
0.000679
0.000679
0.000679
0.000679
0.000679
0.000679
0.000679
0.000679
0.000679
0.000679
0.000679
0.000679
0.000679
0.000679
0.000679
0.000679
0.000679
0.000679
0.000679
0.000679
0.000679
0.000679
0.000679
0.000679
0.000679
0.000679
0.000679
0.000679
0.000679
0.000679
0.000679
0.000679
0.000679
0.000679
0.000679
0.000679
0.000679
0.000679
0.000679
0.000679
0.000679
0.000679
0.000679
0.000679
0.000679
0.000679
0.000679
0.000679
0.000679
0.000679
0.000679
0.000679
0.000679
0.000679
0.000679
0.000679
0.000679
0.000679
0.000679
0.000679
0.000679
0.000679
0.000679
0.000679
0.000679
0.000679
0.000679
0.000679
0.000679
0.000679
0.000679
0.000679
0.000679
0.000679
0.000679
0.000679
0.000679
0.000679
0.000679
0.000679
0.000679
0.000679
0.000679
0.000679
0.000679
0.000679
0.000679
0.000679
0.000679
0.000679
0.000679
0.000679
0.000679
0.000679
0.000679
0.000679
0.000679
0.000679
0.000679
0.000679
0.000679
0.000679
0.000679
0.000679
0.000679
0.000679
0.000679
0.000679
0.000679
0.000679
0.000679
0.000679
0.000679
0.000679
0.000679
0.000679
0.000679
0.000679
0.000679
0.000679
0.000679
0.000679
0.000679
0.000679
0.000679
0.000679
0.000679
0.000679
0.000679
0.000679
0.000679
0.000679
0.000679
0.000679
0.000679
0.000679
0.000679
0.000679
0.000679
0.000679
0.000679
0.000679
0.000679
0.000679
0.000679
0.000679
0.000679
0.000679
0.000679
0.000679
0.000679
0.000679
0.000679
0.000679
0.000679
0.000679
0.000679
#END